com\ffi\paging\Pagination.class
com\ffi\paging\ResponseMessage.class
com\ffi\paging\model\Outlet.class
com\ffi\paging\Response.class
com\ffi\paging\Column.class
com\ffi\paging\Order.class
com\ffi\paging\Search.class
com\ffi\paging\model\ClassModel.class
com\ffi\paging\StandarParam.class
